Access the Spark Catalog API via sparklyr • catalog
…
list_functions(sc)
# # A tibble: 349 × 5
#    name  database description className                                  isTem…¹
#    <chr> <chr>    <chr>       <chr>                                      <lgl>  
#  1 !     <NA>     <NA>        org.apache.spark.sql.catalyst.expressions… TRUE   
#  2 %     <NA>     <NA>        org.apache.spark.sql.catalyst.expressions… TRUE   
#  3 &     <NA>     <NA>        org.apache.spark.sql.catalyst.expressions… TRUE   
#  4 *     <NA>     <NA>        org.apache.spark.sql.catalyst.expressions… TRUE   
#  5 +     <NA>     <NA>        org.apache.spark.sql.catalyst.expressions… TRUE   
#  6 -     <NA>     <NA>        org.apache.spark.sql.catalyst.expressions… TRUE   
#  7 /     <NA>     <NA>        org.apache.spark.sql.catalyst.expressions… TRUE   
#  8 <     <NA>     <NA>        org.apache.spark.sql.catalyst.expressions… TRUE   
#  9 <=    <NA>     <NA>        org.apache.spark.sql.catalyst.expressions… TRUE   
# 10 <=>   <NA>     <NA>        org.apache.spark.sql.catalyst.expressions… TRUE   
# # … with 339 more rows, and abbreviated variable name ¹​isTemporary
# # ℹ Use `print(n = ...)` to see more rows
…
