…
list_functions(sc)
# # A tibble: 298 x 5
#    name  database description className                              isTemporary
#    <chr> <chr>    <chr>       <chr>                                  <lgl>      
#  1 !     <NA>     <NA>        org.apache.spark.sql.catalyst.express… TRUE       
#  2 %     <NA>     <NA>        org.apache.spark.sql.catalyst.express… TRUE       
#  3 &     <NA>     <NA>        org.apache.spark.sql.catalyst.express… TRUE       
#  4 *     <NA>     <NA>        org.apache.spark.sql.catalyst.express… TRUE       
#  5 +     <NA>     <NA>        org.apache.spark.sql.catalyst.express… TRUE       
#  6 -     <NA>     <NA>        org.apache.spark.sql.catalyst.express… TRUE       
#  7 /     <NA>     <NA>        org.apache.spark.sql.catalyst.express… TRUE       
#  8 <     <NA>     <NA>        org.apache.spark.sql.catalyst.express… TRUE       
#  9 <=    <NA>     <NA>        org.apache.spark.sql.catalyst.express… TRUE       
# 10 <=>   <NA>     <NA>        org.apache.spark.sql.catalyst.express… TRUE       
# # … with 288 more rows
…
